{"results":[{"title":"The Maze Runner","year":2014,"type":"movie","id":198663,"summary":"Set in a post-apocalyptic world, young Thomas is deposited in a community of boys after his memory is erased, soon learning they're all trapped in a maze that will require him to join forces with fellow “runners” for a shot at escape.","poster_path":"/coss7RgL0NH6g4fC2s5atvf3dFO.jpg","background_path":"/lkOZcsXcOLZYeJ2YxJd3vSldvU4.jpg","popularity":435.990884,"score":7},{"title":"Blade Runner 2049","year":2017,"type":"movie","id":335984,"summary":"Thirty years after the events of the first film, a new blade runner, LAPD Officer K, unearths a long-buried secret that has the potential to plunge what's left of society into chaos. K's discovery leads him on a quest to find Rick Deckard, a former LAPD blade runner who has been missing for 30 years.","poster_path":"/gajva2L0rPYkEWjzgFlBXCAVBE5.jpg","background_path":"/mVr0UiqyltcfqxbAUcLl9zWL8ah.jpg","popularity":375.70732,"score":7.4},{"title":"Coco","year":2017,"type":"movie","id":354912,"summary":"Despite his family’s baffling generations-old ban on music, Miguel dreams of becoming an accomplished musician like his idol, Ernesto de la Cruz. Desperate to prove his talent, Miguel finds himself in the stunning and colorful Land of the Dead following a mysterious chain of events. Along the way, he meets charming trickster Hector, and together, they set off on an extraordinary journey to unlock the real story behind Miguel's family history.","poster_path":"/eKi8dIrr8voobbaGzDpe8w0PVbC.jpg","background_path":"/askg3SMvhqEl4OL52YuvdtY40Yb.jpg","popularity":373.720653,"score":7.7},{"title":"It","year":2017,"type":"movie","id":346364,"summary":"In a small town in Maine, seven children known as The Losers Club come face to face with life problems, bullies and a monster that takes the shape of a clown called Pennywise.","poster_path":"/9E2y5Q7WlCVNEhP5GiVTjhEhx1o.jpg","background_path":"/tcheoA2nPATCm2vvXw2hVQoaEFD.jpg","popularity":372.536196,"score":7.1},{"title":"Jumanji","year":1995,"type":"movie","id":8844,"summary":"When siblings Judy and Peter discover an enchanted board game that opens the door to a magical world, they unwittingly invite Alan -- an adult who's been trapped inside the game for 26 years -- into their living room. Alan's only hope for freedom is to finish the game, which proves risky as all three find themselves running from giant rhinoceroses, evil monkeys and other terrifying creatures.","poster_path":"/8wBKXZNod4frLZjAKSDuAcQ2dEU.jpg","background_path":"/7k4zEgUZbzMHawDaMc9yIkmY1qR.jpg","popularity":328.104005,"score":7},{"title":"Sleight","year":2017,"type":"movie","id":347882,"summary":"A young street magician is left to take care of his little sister after his mother's passing and turns to drug dealing in the Los Angeles party scene to keep a roof over their heads. When he gets into trouble with his supplier, his sister is kidnapped and he is forced to rely on both his sleight of hand and brilliant mind to save her.","poster_path":"/wridRvGxDqGldhzAIh3IcZhHT5F.jpg","background_path":"/2SEgJ0mHJ7TSdVDbkGU061tR33K.jpg","popularity":313.194105,"score":5.2},{"title":"Thor: Ragnarok","year":2017,"type":"movie","id":284053,"summary":"Thor is imprisoned on the other side of the universe and finds himself in a race against time to get back to Asgard to stop Ragnarok, the prophecy of destruction to his homeworld and the end of Asgardian civilization, at the hands of an all-powerful new threat, the ruthless Hela.","poster_path":"/oSLd5GYGsiGgzDPKTwQh7wamO8t.jpg","background_path":"/kaIfm5ryEOwYg8mLbq8HkPuM1Fo.jpg","popularity":275.821051,"score":7.5},{"title":"War for the Planet of the Apes","year":2017,"type":"movie","id":281338,"summary":"Caesar and his apes are forced into a deadly conflict with an army of humans led by a ruthless Colonel. After the apes suffer unimaginable losses, Caesar wrestles with his darker instincts and begins his own mythic quest to avenge his kind. As the journey finally brings them face to face, Caesar and the Colonel are pitted against each other in an epic battle that will determine the fate of both their species and the future of the planet.","poster_path":"/3vYhLLxrTtZLysXtIWktmd57Snv.jpg","background_path":"/ulMscezy9YX0bhknvJbZoUgQxO5.jpg","popularity":256.86709,"score":6.8},{"title":"Olaf's Frozen Adventure","year":2017,"type":"movie","id":460793,"summary":"Olaf is on a mission to harness the best holiday traditions for Anna, Elsa, and Kristoff.","poster_path":"/47pLZ1gr63WaciDfHCpmoiXJlVr.jpg","background_path":"/9K4QqQZg4TVXcxBGDiVY4Aey3Rn.jpg","popularity":255.47965,"score":5.9},{"title":"Minions","year":2015,"type":"movie","id":211672,"summary":"Minions Stuart, Kevin and Bob are recruited by Scarlet Overkill, a super-villain who, alongside her inventor husband Herb, hatches a plot to take over the world.","poster_path":"/q0R4crx2SehcEEQEkYObktdeFy.jpg","background_path":"/qLmdjn2fv0FV2Mh4NBzMArdA0Uu.jpg","popularity":211.499685,"score":6.4},{"title":"Baby Driver","year":2017,"type":"movie","id":339403,"summary":"After being coerced into working for a crime boss, a young getaway driver finds himself taking part in a heist doomed to fail.","poster_path":"/dN9LbVNNZFITwfaRjl4tmwGWkRg.jpg","background_path":"/goCvLSUFz0p7k8R10Hv4CVh3EQv.jpg","popularity":208.126298,"score":7.3},{"title":"Batman v Superman: Dawn of Justice","year":2016,"type":"movie","id":209112,"summary":"Fearing the actions of a god-like Super Hero left unchecked, Gotham City’s own formidable, forceful vigilante takes on Metropolis’s most revered, modern-day savior, while the world wrestles with what sort of hero it really needs. And with Batman and Superman at war with one another, a new threat quickly arises, putting mankind in greater danger than it’s ever known before.","poster_path":"/cGOPbv9wA5gEejkUN892JrveARt.jpg","background_path":"/vsjBeMPZtyB7yNsYY56XYxifaQZ.jpg","popularity":186.4518,"score":5.7},{"title":"Pirates of the Caribbean: Dead Men Tell No Tales","year":2017,"type":"movie","id":166426,"summary":"Thrust into an all-new adventure, a down-on-his-luck Capt. Jack Sparrow feels the winds of ill-fortune blowing even more strongly when deadly ghost sailors led by his old nemesis, the evil Capt. Salazar, escape from the Devil's Triangle. Jack's only hope of survival lies in seeking out the legendary Trident of Poseidon, but to find it, he must forge an uneasy alliance with a brilliant and beautiful astronomer and a headstrong young man in the British navy.","poster_path":"/xbpSDU3p7YUGlu9Mr6Egg2Vweto.jpg","background_path":"/7C921eWK06n12c1miRXnYoEu5Yv.jpg","popularity":177.161496,"score":6.5},{"title":"Valerian and the City of a Thousand Planets","year":2017,"type":"movie","id":339964,"summary":"In the 28th century, Valerian and Laureline are special operatives charged with keeping order throughout the human territories. On assignment from the Minister of Defense, the two undertake a mission to Alpha, an ever-expanding metropolis where species from across the universe have converged over centuries to share knowledge, intelligence, and cultures. At the center of Alpha is a mysterious dark force which threatens the peaceful existence of the City of a Thousand Planets, and Valerian and Laureline must race to identify the menace and safeguard not just Alpha, but the future of the universe.","poster_path":"/jfIpMh79fGRqYJ6PwZLCntzgxlF.jpg","background_path":"/7WjMTRF6LDa4latRUIDM25xnDO0.jpg","popularity":175.858459,"score":6.6},{"title":"John Wick","year":2014,"type":"movie","id":245891,"summary":"Ex-hitman John Wick comes out of retirement to track down the gangsters that took everything from him.","poster_path":"/5vHssUeVe25bMrof1HyaPyWgaP.jpg","background_path":"/umC04Cozevu8nn3JTDJ1pc7PVTn.jpg","popularity":171.559878,"score":7},{"title":"Geostorm","year":2017,"type":"movie","id":274855,"summary":"After an unprecedented series of natural disasters threatened the planet, the world's leaders came together to create an intricate network of satellites to control the global climate and keep everyone safe. But now, something has gone wrong: the system built to protect Earth is attacking it, and it becomes a race against the clock to uncover the real threat before a worldwide geostorm wipes out everything and everyone along with it.","poster_path":"/nrsx0jEaBgXq4PWo7SooSnYJTv.jpg","background_path":"/6jrMdMe4sMygTcJPpQTjKPmP4l0.jpg","popularity":159.899247,"score":5.7},{"title":"Beauty and the Beast","year":2017,"type":"movie","id":321612,"summary":"A live-action adaptation of Disney's version of the classic tale of a cursed prince and a beautiful young woman who helps him break the spell.","poster_path":"/tWqifoYuwLETmmasnGHO7xBjEtt.jpg","background_path":"/6aUWe0GSl69wMTSWWexsorMIvwU.jpg","popularity":156.774587,"score":6.8},{"title":"The Hunger Games: Mockingjay - Part 1","year":2014,"type":"movie","id":131631,"summary":"Katniss Everdeen reluctantly becomes the symbol of a mass rebellion against the autocratic Capitol.","poster_path":"/gj282Pniaa78ZJfbaixyLXnXEDI.jpg","background_path":"/4PwyB0ErucIANzW24Kori71J6gU.jpg","popularity":148.551513,"score":6.7},{"title":"Star Wars: The Last Jedi","year":2017,"type":"movie","id":181808,"summary":"Rey develops her newly discovered abilities with the guidance of Luke Skywalker, who is unsettled by the strength of her powers. Meanwhile, the Resistance prepares to do battle with the First Order.","poster_path":"/kOVEVeg59E0wsnXmF9nrh6OmWII.jpg","background_path":"/5Iw7zQTHVRBOYpA0V6z0yypOPZh.jpg","popularity":144.320581,"score":7.2},{"title":"John Wick: Chapter 2","year":2017,"type":"movie","id":324552,"summary":"John Wick is forced out of retirement by a former associate looking to seize control of a shadowy international assassins’ guild. Bound by a blood oath to aid him, Wick travels to Rome and does battle against some of the world’s most dangerous killers.","poster_path":"/zkXnKIwX5pYorKJp2fjFSfNyKT0.jpg","background_path":"/dQ6s3Ud2KoOs3LKw6xgZr1cw7Yq.jpg","popularity":137.808961,"score":6.8}],"page":1,"total_pages":988,"total_results":19757}